\relax 
\catcode`:\active
\catcode`;\active
\catcode`!\active
\catcode`?\active
\select@language{french}
\@writefile{toc}{\select@language{french}}
\@writefile{lof}{\select@language{french}}
\@writefile{lot}{\select@language{french}}
\@writefile{toc}{\contentsline {section}{\numberline {1}Give a consistent heuristic for this problem. Prove that it is admissible}{2}}
\@writefile{toc}{\contentsline {section}{\numberline {2}Show on the maze the states that are visited during an execution of a uniform-cost graph search}{2}}
\@writefile{lof}{\contentsline {figure}{\numberline {1}{\ignorespaces Uniform cost graph search\relax }}{2}}
\@writefile{toc}{\contentsline {section}{\numberline {3}Show on the maze the board positions visited by $A*$ graph search with a Manhattan distance heuristic}{2}}
\@writefile{lof}{\contentsline {figure}{\numberline {2}{\ignorespaces A* graph search\relax }}{3}}
\@writefile{toc}{\contentsline {section}{\numberline {4}Give an upper bound on the number of different states a mazeCollect problem of size $n \cdot m$ with $k$ money items to collect ? Justify your answer precisely}{3}}
\@writefile{toc}{\contentsline {section}{\numberline {5}Describe your best consistent heuristic for the mazeCollect problem. When using distance, precise which distance you use. Justify precisely the admissibility and the consistency of your heuristic}{3}}
\@writefile{toc}{\contentsline {section}{\numberline {6}Implement your solver. Submit your program on INGInious}{4}}
\@writefile{toc}{\contentsline {section}{\numberline {7}Experiment, compare and analyze informed and uninformed graph search on the 10 given instances of mazeCollect. Report in a table the time, the number of explored nodes and the number of steps to reach the solution}{4}}
\@writefile{lot}{\contentsline {table}{\numberline {1}{\ignorespaces Uninformed uniform-cost graph search\relax }}{5}}
\@writefile{lot}{\contentsline {table}{\numberline {2}{\ignorespaces Informed A* graph search\relax }}{5}}
\@writefile{toc}{\contentsline {section}{\numberline {8}In your experiments, is the time taken by $A*$ always smaller than the one taken by breadth first search and why ?}{6}}
\@writefile{toc}{\contentsline {section}{\numberline {9}In your experiments, is the number of nodes explored by $A*$ always smaller than the number of nodes explored by breadth first search and why ?}{6}}
