\relax 
\catcode`:\active
\catcode`;\active
\catcode`!\active
\catcode`?\active
\select@language{french}
\@writefile{toc}{\select@language{french}}
\@writefile{lof}{\select@language{french}}
\@writefile{lot}{\select@language{french}}
\@writefile{toc}{\contentsline {section}{\numberline {1}Alpha-Beta search}{2}}
\@writefile{toc}{\contentsline {subsection}{\numberline {1.1}Algorithms performed on the tree}{2}}
\@writefile{lof}{\contentsline {figure}{\numberline {1}{\ignorespaces MiniMax\relax }}{2}}
\@writefile{lof}{\contentsline {figure}{\numberline {2}{\ignorespaces Alpha-Beta, left-to-right expansion\relax }}{2}}
\@writefile{lof}{\contentsline {figure}{\numberline {3}{\ignorespaces Alpha-Beta, right-to-left expansion\relax }}{3}}
\@writefile{toc}{\contentsline {subsection}{\numberline {1.2}Can the nodes be ordered in such a way that Alpha-Beta pruning can cut off more branches ?}{3}}
\@writefile{lof}{\contentsline {figure}{\numberline {4}{\ignorespaces Alpha-Beta, left-to-right expansion (ordered tree)\relax }}{3}}
\@writefile{toc}{\contentsline {section}{\numberline {2}Zombies}{4}}
\@writefile{toc}{\contentsline {subsection}{\numberline {2.1}A Basic Alpha-Beta Agent}{4}}
\@writefile{toc}{\contentsline {subsection}{\numberline {2.2}Comparison of two evaluation fonction}{4}}
\@writefile{toc}{\contentsline {subsection}{\numberline {2.3}Evaluation fonction}{4}}
\@writefile{toc}{\contentsline {subsubsection}{\numberline {2.3.1}Describe precisely your evaluation function}{4}}
\@writefile{toc}{\contentsline {subsection}{\numberline {2.4}Successors function}{4}}
\@writefile{toc}{\contentsline {subsubsection}{\numberline {2.4.1}Give an upper and a lower bound on the branching factor for a search tree on the Zombies game. Justify your answer.}{4}}
\@writefile{toc}{\contentsline {subsubsection}{\numberline {2.4.2}How does the branching factor evolve after a piece has been placed on the board? How does the branching factor evolve after a piece has been moved on the board? Explain.}{5}}
\@writefile{toc}{\contentsline {subsubsection}{\numberline {2.4.3}Can you think of states that might be ignored? What do you loose if you ignore successors? Explain.}{5}}
\@writefile{toc}{\contentsline {subsubsection}{\numberline {2.4.4}Describe your successors function.}{5}}
\@writefile{toc}{\contentsline {subsection}{\numberline {2.5}Cutoff function}{6}}
\@writefile{toc}{\contentsline {subsubsection}{\numberline {2.5.1}The cutoff method receives an argument called depth. Explain precisely what is called the depth in the minimax.py implementation.}{6}}
\@writefile{toc}{\contentsline {subsubsection}{\numberline {2.5.2}Explain why it might be useful (for the Zombies contest) to cut off the search for another reason than the depth. Would it be interesting to consider a changing cutoff function (i.e. it changes according to the advancement of the game).}{6}}
\@writefile{toc}{\contentsline {subsubsection}{\numberline {2.5.3}Describe your cutoff function}{6}}
\@writefile{toc}{\contentsline {subsection}{\numberline {2.6}Contest}{6}}
\@writefile{toc}{\contentsline {subsubsection}{\numberline {2.6.1}Describe concisely your super tough agent}{6}}
